{
  "type": "service_account",
  "project_id": "gw-hackathon-2019",
  "private_key_id": "af3cc59520b0db7be352b113504caf398c0a8192",
  "private_key": "-----BEGIN PRIVATE KEY-----\nMIIEvgIBADANBgkqhkiG9w0BAQEFAASCBKgwggSkAgEAAoIBAQC42seZGl3b72mP\n3a9vj/ecZC1SRvzk21tSo71Iryqhq+mEpsrfMzUq5rX+En5jzPRuxOnnxaxsYAYD\nziPkNcfEv9ELmYJIyIRMWOy6gVFW5lSABOuDeoKd1PnLr0nb2/BodtiREVXZ56DS\nSVfNRrPIfWXgXsnFS9Cqul4Ppsp6fzqy3SZzRN9UJ2zLeNwGLIz1rxG1kU4Trf+q\nOfEWH7GBn6shQHlXpn+1y0H2LXNTIDQ3NANJqvkeiuo/y98b2qKn40FKVZ09BufR\nVeqO5GfD4LYO4RCRJY9MpbrEjhjfU/dtLkw6eVIfil3ft9F9fZKI073tE3gTwN8Q\nUIK2kIprAgMBAAECggEACl1ks6uhd6OE7RF7tMBYcecWuMuiLR2KO/1SWluiraNQ\nr09q205TvNloJZwuhLSz6pdqm270rAmg92BSQt7Wb1cSBu8kjvrZ8C327WjdgVyI\n1bobj9O0CdrXPBnSr7E1WaYlnny1A51+jEvwewzBJ+IKxE829l5kj4NuTWeyErbX\nJ4K/QES2xFgxkhWa7ZlyC9Pfoe7vqAkWOxmhCsCWcJOjlltKa6hKtKrmrKTLhSdK\nqvyLoKvQws6zOFnVfhpYoF9Z8ZKsdOR1mNASJlzsn/vanrJWDBbFhHmmUyl7zbtP\n5/CWrQ4XHbmsp+bKumTezRZszKxAYSQYFfVgUkcdAQKBgQDeuTG2GVLy1+XYVw5B\nOls3Va8FivGFg59TJw9oCNrBrNfF+yiSfXipvVaM9q8ZHc2xc9wh1xasmDJm6jba\n9sbkEEwjtRkXwMyIKZyo7fSzy9CkFP0U9oEr07wVtIw0h7tAY0ab7AJCAs4WMZ0+\n1EBlxu2jlCFEondCQ4ZfWEnywwKBgQDUeSppFO52Em+cp+8V7bImEgauIW9e7XN8\nSlQL56D/uhHqZbUDuIzhs1P2m9yHlnkqLLu9OrMJvb6kSGlSu5E7binnRZaTE8IA\nukcrQkE8i1mkYEeZn7GnDfajzGXpaa2vwKy1TQS0oVMmgIi9rbm/YmrNOFyrosOV\nCkXMon6/OQKBgDABnvNvNe/eFU6yRQJOP8cHkvgQ4Mo0eq0DqFB2SCCizsd/wVkB\n7nY3t2Ye7dLuF53+KR6qK9r72zFPno9HzcrusFqp+ESka/GVdoz67Vmrvsb/NyXD\nlEgMFWhgSDAyaWwRefC1yC7OR/mErC4UteS6IhK2JQ2ULzx7LYVzlEzdAoGBALNI\nBewi+E9yoPDblta2+WI8RZy6o6HC1HZktWRSLzx4wdM5vLKGD4IGceudekiCRHy8\nwDEcjaPDklBGtXBUymgOPZdi1XoG6uT4SUMMJcWzg5E6mE/dOubN1nZB6yA3xpGN\nD23vre/ITEQporgCFcCSh7HgQ/mjXkqtH1ZbKn2pAoGBAMvtObsIpUAAu0Mv7VOz\n4GDp7dk2nGGZgMK6+nJGnQ+v0yukoYmK/AUZXzBejWQ9FUsAWiv+AyYdT3UF3IYO\n038yg4PhHM3AnoB11fPKza3Vlc3QMDb2D/ULyorVBvtR/SdTKvcm8CCvYzOigzKU\ni5uymXa9iU/NdanKpza7U+Nw\n-----END PRIVATE KEY-----\n",
  "client_email": "firebase-adminsdk-mtg08@gw-hackathon-2019.iam.gserviceaccount.com",
  "client_id": "100151348999329380375",
  "auth_uri": "https://accounts.google.com/o/oauth2/auth",
  "token_uri": "https://oauth2.googleapis.com/token",
  "auth_provider_x509_cert_url": "https://www.googleapis.com/oauth2/v1/certs",
  "client_x509_cert_url": "https://www.googleapis.com/robot/v1/metadata/x509/firebase-adminsdk-mtg08%40gw-hackathon-2019.iam.gserviceaccount.com"
}
